{
  "message": "Popular Playlists",
  "playlists": {
    "href": "https://api.spotify.com/v1/browse/featured-playlists?offset=0&limit=20&locale=en-US",
    "items": [
      {
        "collaborative": false,
        "description": "Hottest Hindi music served here. Cover - Animal",
        "external_urls": {
          "spotify": "https://open.spotify.com/playlist/37i9dQZF1DX0XUfTFmNBRM"
        },
        "href": "https://api.spotify.com/v1/playlists/37i9dQZF1DX0XUfTFmNBRM",
        "id": "37i9dQZF1DX0XUfTFmNBRM",
        "images": [
          {
            "height": null,
            "url": "https://i.scdn.co/image/ab67706f00000002319bd79eba1610f1f5fe6a4b",
            "width": null
          }
        ],
        "name": "Hot Hits Hindi",
        "owner": {
          "display_name": "Spotify",
          "external_urls": {
            "spotify": "https://open.spotify.com/user/spotify"
          },
          "href": "https://api.spotify.com/v1/users/spotify",
          "id": "spotify",
          "type": "user",
          "uri": "spotify:user:spotify"
        },
        "primary_color": "#ffffff",
        "public": true,
        "snapshot_id": "ZdbqPwAAAACs7XdL4m74vmPqFy7QCEt2",
        "tracks": {
          "href": "https://api.spotify.com/v1/playlists/37i9dQZF1DX0XUfTFmNBRM/tracks",
          "total": 50
        },
        "type": "playlist",
        "uri": "spotify:playlist:37i9dQZF1DX0XUfTFmNBRM"
      },
      {
        "collaborative": false,
        "description": "Catch the hottest Punjabi tracks with Karan Aujla and Divine on the cover for their album \"Street Dreams\"",
        "external_urls": {
          "spotify": "https://open.spotify.com/playlist/37i9dQZF1DWXVJK4aT7pmk"
        },
        "href": "https://api.spotify.com/v1/playlists/37i9dQZF1DWXVJK4aT7pmk",
        "id": "37i9dQZF1DWXVJK4aT7pmk",
        "images": [
          {
            "height": null,
            "url": "https://i.scdn.co/image/ab67706f00000002106c1e6d4101c5a5a2325b98",
            "width": null
          }
        ],
        "name": "Hot Hits Punjabi",
        "owner": {
          "display_name": "Spotify",
          "external_urls": {
            "spotify": "https://open.spotify.com/user/spotify"
          },
          "href": "https://api.spotify.com/v1/users/spotify",
          "id": "spotify",
          "type": "user",
          "uri": "spotify:user:spotify"
        },
        "primary_color": "#ffffff",
        "public": true,
        "snapshot_id": "ZdLN3QAAAAAAzUHChOhnc7MJvmTskCAX",
        "tracks": {
          "href": "https://api.spotify.com/v1/playlists/37i9dQZF1DWXVJK4aT7pmk/tracks",
          "total": 75
        },
        "type": "playlist",
        "uri": "spotify:playlist:37i9dQZF1DWXVJK4aT7pmk"
      },
      {
        "collaborative": false,
        "description": "Bollywood songs that ruled hearts in the Y2K decade. Cover - Om Shanti Om",
        "external_urls": {
          "spotify": "https://open.spotify.com/playlist/37i9dQZF1DWZNJXX2UeBij"
        },
        "href": "https://api.spotify.com/v1/playlists/37i9dQZF1DWZNJXX2UeBij",
        "id": "37i9dQZF1DWZNJXX2UeBij",
        "images": [
          {
            "height": null,
            "url": "https://i.scdn.co/image/ab67706f00000002ce63eebfef5bed7bb1163bab",
            "width": null
          }
        ],
        "name": "All Out 00's Hindi",
        "owner": {
          "display_name": "Spotify",
          "external_urls": {
            "spotify": "https://open.spotify.com/user/spotify"
          },
          "href": "https://api.spotify.com/v1/users/spotify",
          "id": "spotify",
          "type": "user",
          "uri": "spotify:user:spotify"
        },
        "primary_color": "#ffffff",
        "public": true,
        "snapshot_id": "ZcRTHgAAAACqNvQnGVBZPXwVHbug/g0J",
        "tracks": {
          "href": "https://api.spotify.com/v1/playlists/37i9dQZF1DWZNJXX2UeBij/tracks",
          "total": 100
        },
        "type": "playlist",
        "uri": "spotify:playlist:37i9dQZF1DWZNJXX2UeBij"
      },
      {
        "collaborative": false,
        "description": "Every track you're listening/should be listening to ;) Cover- Animal",
        "external_urls": {
          "spotify": "https://open.spotify.com/playlist/37i9dQZF1DXbVhgADFy3im"
        },
        "href": "https://api.spotify.com/v1/playlists/37i9dQZF1DXbVhgADFy3im",
        "id": "37i9dQZF1DXbVhgADFy3im",
        "images": [
          {
            "height": null,
            "url": "https://i.scdn.co/image/ab67706f000000029aca80c44272329aa82d6dff",
            "width": null
          }
        ],
        "name": "Trending Now India",
        "owner": {
          "display_name": "Spotify",
          "external_urls": {
            "spotify": "https://open.spotify.com/user/spotify"
          },
          "href": "https://api.spotify.com/v1/users/spotify",
          "id": "spotify",
          "type": "user",
          "uri": "spotify:user:spotify"
        },
        "primary_color": "#ffffff",
        "public": true,
        "snapshot_id": "ZdL7PwAAAAA/8Hm7n4Htf1fIRjPVcYsO",
        "tracks": {
          "href": "https://api.spotify.com/v1/playlists/37i9dQZF1DXbVhgADFy3im/tracks",
          "total": 75
        },
        "type": "playlist",
        "uri": "spotify:playlist:37i9dQZF1DXbVhgADFy3im"
      },
      {
        "collaborative": false,
        "description": "Let these songs be the background score to your love story. Cover - Bhediya",
        "external_urls": {
          "spotify": "https://open.spotify.com/playlist/37i9dQZF1DXdpQPPZq3F7n"
        },
        "href": "https://api.spotify.com/v1/playlists/37i9dQZF1DXdpQPPZq3F7n",
        "id": "37i9dQZF1DXdpQPPZq3F7n",
        "images": [
          {
            "height": null,
            "url": "https://i.scdn.co/image/ab67706f00000002b00a3ae5fe07a3f8520be66e",
            "width": null
          }
        ],
        "name": "Bollywood Mush",
        "owner": {
          "display_name": "Spotify",
          "external_urls": {
            "spotify": "https://open.spotify.com/user/spotify"
          },
          "href": "https://api.spotify.com/v1/users/spotify",
          "id": "spotify",
          "type": "user",
          "uri": "spotify:user:spotify"
        },
        "primary_color": "#ffffff",
        "public": true,
        "snapshot_id": "Zbxk7gAAAABLXScqPBD83ZBcxxZ+2M1s",
        "tracks": {
          "href": "https://api.spotify.com/v1/playlists/37i9dQZF1DXdpQPPZq3F7n/tracks",
          "total": 75
        },
        "type": "playlist",
        "uri": "spotify:playlist:37i9dQZF1DXdpQPPZq3F7n"
      },
      {
        "collaborative": false,
        "description": "Ultimate 101 Punjabi Hits with Shubh",
        "external_urls": {
          "spotify": "https://open.spotify.com/playlist/37i9dQZF1DX5cZuAHLNjGz"
        },
        "href": "https://api.spotify.com/v1/playlists/37i9dQZF1DX5cZuAHLNjGz",
        "id": "37i9dQZF1DX5cZuAHLNjGz",
        "images": [
          {
            "height": null,
            "url": "https://i.scdn.co/image/ab67706f000000020f9071523edb8a48b0e961e2",
            "width": null
          }
        ],
        "name": "Punjabi 101",
        "owner": {
          "display_name": "Spotify",
          "external_urls": {
            "spotify": "https://open.spotify.com/user/spotify"
          },
          "href": "https://api.spotify.com/v1/users/spotify",
          "id": "spotify",
          "type": "user",
          "uri": "spotify:user:spotify"
        },
        "primary_color": "#FFFFFf",
        "public": true,
        "snapshot_id": "ZdcuwgAAAADzCkQNqzglyv7TjZW8rFey",
        "tracks": {
          "href": "https://api.spotify.com/v1/playlists/37i9dQZF1DX5cZuAHLNjGz/tracks",
          "total": 101
        },
        "type": "playlist",
        "uri": "spotify:playlist:37i9dQZF1DX5cZuAHLNjGz"
      },
      {
        "collaborative": false,
        "description": "Fall in love with 00's Bollywood like never before! Cover - Bachna Ae Haseeno",
        "external_urls": {
          "spotify": "https://open.spotify.com/playlist/37i9dQZF1DWVq1SXCH6uFn"
        },
        "href": "https://api.spotify.com/v1/playlists/37i9dQZF1DWVq1SXCH6uFn",
        "id": "37i9dQZF1DWVq1SXCH6uFn",
        "images": [
          {
            "height": null,
            "url": "https://i.scdn.co/image/ab67706f000000029ea40053fb491932319307f2",
            "width": null
          }
        ],
        "name": "00's Love Hits",
        "owner": {
          "display_name": "Spotify",
          "external_urls": {
            "spotify": "https://open.spotify.com/user/spotify"
          },
          "href": "https://api.spotify.com/v1/users/spotify",
          "id": "spotify",
          "type": "user",
          "uri": "spotify:user:spotify"
        },
        "primary_color": "#ffffff",
        "public": true,
        "snapshot_id": "Zc24pgAAAABk2MEzOYablM8mU+blrVuN",
        "tracks": {
          "href": "https://api.spotify.com/v1/playlists/37i9dQZF1DWVq1SXCH6uFn/tracks",
          "total": 100
        },
        "type": "playlist",
        "uri": "spotify:playlist:37i9dQZF1DWVq1SXCH6uFn"
      },
      {
        "collaborative": false,
        "description": "K..K..K..Kiran to T..T..T..Tuffy, the wonderfully unique decade. Cover - Raja",
        "external_urls": {
          "spotify": "https://open.spotify.com/playlist/37i9dQZF1DXa2huSXaKVkW"
        },
        "href": "https://api.spotify.com/v1/playlists/37i9dQZF1DXa2huSXaKVkW",
        "id": "37i9dQZF1DXa2huSXaKVkW",
        "images": [
          {
            "height": null,
            "url": "https://i.scdn.co/image/ab67706f00000002ade21b666ea6464a7c693c92",
            "width": null
          }
        ],
        "name": "All Out 90s Hindi",
        "owner": {
          "display_name": "Spotify",
          "external_urls": {
            "spotify": "https://open.spotify.com/user/spotify"
          },
          "href": "https://api.spotify.com/v1/users/spotify",
          "id": "spotify",
          "type": "user",
          "uri": "spotify:user:spotify"
        },
        "primary_color": "#ffffff",
        "public": true,
        "snapshot_id": "Za+HlgAAAAAqWTQ7UDkK26NFvF+/qckh",
        "tracks": {
          "href": "https://api.spotify.com/v1/playlists/37i9dQZF1DXa2huSXaKVkW/tracks",
          "total": 100
        },
        "type": "playlist",
        "uri": "spotify:playlist:37i9dQZF1DXa2huSXaKVkW"
      },
      {
        "collaborative": false,
        "description": "Bollywood Central, jab baje toh seedha dil ke centre mein lage ❤️ Cover - Animal",
        "external_urls": {
          "spotify": "https://open.spotify.com/playlist/37i9dQZF1DWXtlo6ENS92N"
        },
        "href": "https://api.spotify.com/v1/playlists/37i9dQZF1DWXtlo6ENS92N",
        "id": "37i9dQZF1DWXtlo6ENS92N",
        "images": [
          {
            "height": null,
            "url": "https://i.scdn.co/image/ab67706f00000002efcd35fd64a73060bb6605e4",
            "width": null
          }
        ],
        "name": "Bollywood Central",
        "owner": {
          "display_name": "Spotify",
          "external_urls": {
            "spotify": "https://open.spotify.com/user/spotify"
          },
          "href": "https://api.spotify.com/v1/users/spotify",
          "id": "spotify",
          "type": "user",
          "uri": "spotify:user:spotify"
        },
        "primary_color": "#ffffff",
        "public": true,
        "snapshot_id": "ZdbqvwAAAAAOBVHqsL/i20HfxL0rbybj",
        "tracks": {
          "href": "https://api.spotify.com/v1/playlists/37i9dQZF1DWXtlo6ENS92N/tracks",
          "total": 50
        },
        "type": "playlist",
        "uri": "spotify:playlist:37i9dQZF1DWXtlo6ENS92N"
      },
      {
        "collaborative": false,
        "description": "Party-ready, biggest Bollywood dance tracks of the last 10 years. Cover - Bhediya",
        "external_urls": {
          "spotify": "https://open.spotify.com/playlist/37i9dQZF1DX8xfQRRX1PDm"
        },
        "href": "https://api.spotify.com/v1/playlists/37i9dQZF1DX8xfQRRX1PDm",
        "id": "37i9dQZF1DX8xfQRRX1PDm",
        "images": [
          {
            "height": null,
            "url": "https://i.scdn.co/image/ab67706f000000022e8146e19aaf63cba9ecfc21",
            "width": null
          }
        ],
        "name": "Bollywood Dance Music",
        "owner": {
          "display_name": "Spotify",
          "external_urls": {
            "spotify": "https://open.spotify.com/user/spotify"
          },
          "href": "https://api.spotify.com/v1/users/spotify",
          "id": "spotify",
          "type": "user",
          "uri": "spotify:user:spotify"
        },
        "primary_color": "#ffffff",
        "public": true,
        "snapshot_id": "ZdcqnwAAAAAEK+rTxKEDn3R38tmmjUXR",
        "tracks": {
          "href": "https://api.spotify.com/v1/playlists/37i9dQZF1DX8xfQRRX1PDm/tracks",
          "total": 75
        },
        "type": "playlist",
        "uri": "spotify:playlist:37i9dQZF1DX8xfQRRX1PDm"
      },
      {
        "collaborative": false,
        "description": "Tune into the Hottest tracks of Kollywood!\nCover : Leo",
        "external_urls": {
          "spotify": "https://open.spotify.com/playlist/37i9dQZF1DX1i3hvzHpcQV"
        },
        "href": "https://api.spotify.com/v1/playlists/37i9dQZF1DX1i3hvzHpcQV",
        "id": "37i9dQZF1DX1i3hvzHpcQV",
        "images": [
          {
            "height": null,
            "url": "https://i.scdn.co/image/ab67706f000000029b6b827913a29a7aee530f05",
            "width": null
          }
        ],
        "name": "Hot Hits Tamil",
        "owner": {
          "display_name": "Spotify",
          "external_urls": {
            "spotify": "https://open.spotify.com/user/spotify"
          },
          "href": "https://api.spotify.com/v1/users/spotify",
          "id": "spotify",
          "type": "user",
          "uri": "spotify:user:spotify"
        },
        "primary_color": "#ffffff",
        "public": true,
        "snapshot_id": "ZdbT4AAAAACWqn6pQTCZMyljJ0gZVCyK",
        "tracks": {
          "href": "https://api.spotify.com/v1/playlists/37i9dQZF1DX1i3hvzHpcQV/tracks",
          "total": 51
        },
        "type": "playlist",
        "uri": "spotify:playlist:37i9dQZF1DX1i3hvzHpcQV"
      },
      {
        "collaborative": false,
        "description": "India's Ultimate Love Playlist featuring a mix of Hindi, Punjabi and English Songs. \n\nCover- Ranbir Kapoor & Rashmika Mandanna",
        "external_urls": {
          "spotify": "https://open.spotify.com/playlist/37i9dQZF1DX14CbVHtvHRB"
        },
        "href": "https://api.spotify.com/v1/playlists/37i9dQZF1DX14CbVHtvHRB",
        "id": "37i9dQZF1DX14CbVHtvHRB",
        "images": [
          {
            "height": null,
            "url": "https://i.scdn.co/image/ab67706f00000002cac7686555c2bc3bf267d555",
            "width": null
          }
        ],
        "name": "Trending Valentine's Hits ",
        "owner": {
          "display_name": "Spotify",
          "external_urls": {
            "spotify": "https://open.spotify.com/user/spotify"
          },
          "href": "https://api.spotify.com/v1/users/spotify",
          "id": "spotify",
          "type": "user",
          "uri": "spotify:user:spotify"
        },
        "primary_color": "#ffffff",
        "public": true,
        "snapshot_id": "ZcRjdQAAAAC7xn7z6Edr9bd/s8dbQ7Un",
        "tracks": {
          "href": "https://api.spotify.com/v1/playlists/37i9dQZF1DX14CbVHtvHRB/tracks",
          "total": 75
        },
        "type": "playlist",
        "uri": "spotify:playlist:37i9dQZF1DX14CbVHtvHRB"
      },
      {
        "collaborative": false,
        "description": "A mega mix of 75 favorites from the last few years! ",
        "external_urls": {
          "spotify": "https://open.spotify.com/playlist/37i9dQZF1DXbYM3nMM0oPk"
        },
        "href": "https://api.spotify.com/v1/playlists/37i9dQZF1DXbYM3nMM0oPk",
        "id": "37i9dQZF1DXbYM3nMM0oPk",
        "images": [
          {
            "height": null,
            "url": "https://i.scdn.co/image/ab67706f000000028aa213d23c60645e2649a350",
            "width": null
          }
        ],
        "name": "Mega Hit Mix",
        "owner": {
          "display_name": "Spotify",
          "external_urls": {
            "spotify": "https://open.spotify.com/user/spotify"
          },
          "href": "https://api.spotify.com/v1/users/spotify",
          "id": "spotify",
          "type": "user",
          "uri": "spotify:user:spotify"
        },
        "primary_color": "#ffffff",
        "public": true,
        "snapshot_id": "ZWovCgAAAAAOE6oJUb5zZc1d+mTGrWg6",
        "tracks": {
          "href": "https://api.spotify.com/v1/playlists/37i9dQZF1DXbYM3nMM0oPk/tracks",
          "total": 75
        },
        "type": "playlist",
        "uri": "spotify:playlist:37i9dQZF1DXbYM3nMM0oPk"
      },
      {
        "collaborative": false,
        "description": "Top Trending Tamil Songs on Social Media\nCover : JDX",
        "external_urls": {
          "spotify": "https://open.spotify.com/playlist/37i9dQZF1DX4Im4BTs2WMg"
        },
        "href": "https://api.spotify.com/v1/playlists/37i9dQZF1DX4Im4BTs2WMg",
        "id": "37i9dQZF1DX4Im4BTs2WMg",
        "images": [
          {
            "height": null,
            "url": "https://i.scdn.co/image/ab67706f00000002416b3876768cd7485ad52485",
            "width": null
          }
        ],
        "name": "Trending Now Tamil",
        "owner": {
          "display_name": "Spotify",
          "external_urls": {
            "spotify": "https://open.spotify.com/user/spotify"
          },
          "href": "https://api.spotify.com/v1/users/spotify",
          "id": "spotify",
          "type": "user",
          "uri": "spotify:user:spotify"
        },
        "primary_color": "#ffffff",
        "public": true,
        "snapshot_id": "ZcNPLQAAAADYPhjkegCLSxfND73fKAGb",
        "tracks": {
          "href": "https://api.spotify.com/v1/playlists/37i9dQZF1DX4Im4BTs2WMg/tracks",
          "total": 75
        },
        "type": "playlist",
        "uri": "spotify:playlist:37i9dQZF1DX4Im4BTs2WMg"
      },
      {
        "collaborative": false,
        "description": "Tune in to the Hottest Tracks of Tollywood!\nCover : Guntur Kaaram",
        "external_urls": {
          "spotify": "https://open.spotify.com/playlist/37i9dQZF1DX6XE7HRLM75P"
        },
        "href": "https://api.spotify.com/v1/playlists/37i9dQZF1DX6XE7HRLM75P",
        "id": "37i9dQZF1DX6XE7HRLM75P",
        "images": [
          {
            "height": null,
            "url": "https://i.scdn.co/image/ab67706f0000000292e04b40869aaffeaaea549b",
            "width": null
          }
        ],
        "name": "Hot Hits Telugu",
        "owner": {
          "display_name": "Spotify",
          "external_urls": {
            "spotify": "https://open.spotify.com/user/spotify"
          },
          "href": "https://api.spotify.com/v1/users/spotify",
          "id": "spotify",
          "type": "user",
          "uri": "spotify:user:spotify"
        },
        "primary_color": "#ffffff",
        "public": true,
        "snapshot_id": "ZcnkhAAAAABO8q9bWE5Bvvq3eFyUfTxe",
        "tracks": {
          "href": "https://api.spotify.com/v1/playlists/37i9dQZF1DX6XE7HRLM75P/tracks",
          "total": 50
        },
        "type": "playlist",
        "uri": "spotify:playlist:37i9dQZF1DX6XE7HRLM75P"
      },
      {
        "collaborative": false,
        "description": "Relive the '90s with these beautiful romantic hits. Cover - Dil",
        "external_urls": {
          "spotify": "https://open.spotify.com/playlist/37i9dQZF1DXa6iPZDThhLh"
        },
        "href": "https://api.spotify.com/v1/playlists/37i9dQZF1DXa6iPZDThhLh",
        "id": "37i9dQZF1DXa6iPZDThhLh",
        "images": [
          {
            "height": null,
            "url": "https://i.scdn.co/image/ab67706f000000021a6c70725e6c2bd9c771c31b",
            "width": null
          }
        ],
        "name": "90s Love Hits",
        "owner": {
          "display_name": "Spotify",
          "external_urls": {
            "spotify": "https://open.spotify.com/user/spotify"
          },
          "href": "https://api.spotify.com/v1/users/spotify",
          "id": "spotify",
          "type": "user",
          "uri": "spotify:user:spotify"
        },
        "primary_color": "#ffffff",
        "public": true,
        "snapshot_id": "ZVjYzwAAAACspKkpkPbAF9j6oBpAgaE6",
        "tracks": {
          "href": "https://api.spotify.com/v1/playlists/37i9dQZF1DXa6iPZDThhLh/tracks",
          "total": 100
        },
        "type": "playlist",
        "uri": "spotify:playlist:37i9dQZF1DXa6iPZDThhLh"
      },
      {
        "collaborative": false,
        "description": "We can't keep calm because 'Bade Miyan Chote Miyan' are here! ",
        "external_urls": {
          "spotify": "https://open.spotify.com/playlist/37i9dQZF1DXd8cOUiye1o2"
        },
        "href": "https://api.spotify.com/v1/playlists/37i9dQZF1DXd8cOUiye1o2",
        "id": "37i9dQZF1DXd8cOUiye1o2",
        "images": [
          {
            "height": null,
            "url": "https://i.scdn.co/image/ab67706f00000002efe0556e1fb3fb3a7d1f3957",
            "width": null
          }
        ],
        "name": "New Music Hindi",
        "owner": {
          "display_name": "Spotify",
          "external_urls": {
            "spotify": "https://open.spotify.com/user/spotify"
          },
          "href": "https://api.spotify.com/v1/users/spotify",
          "id": "spotify",
          "type": "user",
          "uri": "spotify:user:spotify"
        },
        "primary_color": "#ffffff",
        "public": true,
        "snapshot_id": "Zdh7DwAAAABplZcw78FBfw6cCthyw9wS",
        "tracks": {
          "href": "https://api.spotify.com/v1/playlists/37i9dQZF1DXd8cOUiye1o2/tracks",
          "total": 75
        },
        "type": "playlist",
        "uri": "spotify:playlist:37i9dQZF1DXd8cOUiye1o2"
      },
      {
        "collaborative": false,
        "description": "Bollywood crooner's essential songs.",
        "external_urls": {
          "spotify": "https://open.spotify.com/playlist/37i9dQZF1DWYztMONFqfvX"
        },
        "href": "https://api.spotify.com/v1/playlists/37i9dQZF1DWYztMONFqfvX",
        "id": "37i9dQZF1DWYztMONFqfvX",
        "images": [
          {
            "height": null,
            "url": "https://i.scdn.co/image/ab67706f000000023ec51dd9c17a9add42c2e249",
            "width": null
          }
        ],
        "name": "This Is Arijit Singh",
        "owner": {
          "display_name": "Spotify",
          "external_urls": {
            "spotify": "https://open.spotify.com/user/spotify"
          },
          "href": "https://api.spotify.com/v1/users/spotify",
          "id": "spotify",
          "type": "user",
          "uri": "spotify:user:spotify"
        },
        "primary_color": "#ffffff",
        "public": true,
        "snapshot_id": "Zc3frgAAAACrMzbRrpmcr/AT31mp4bCD",
        "tracks": {
          "href": "https://api.spotify.com/v1/playlists/37i9dQZF1DWYztMONFqfvX/tracks",
          "total": 50
        },
        "type": "playlist",
        "uri": "spotify:playlist:37i9dQZF1DWYztMONFqfvX"
      },
      {
        "collaborative": false,
        "description": "Everything from cheesy floor-fillers to big beat bangers. Cover - Hero No. 1",
        "external_urls": {
          "spotify": "https://open.spotify.com/playlist/37i9dQZF1DWWQ4RVrwACVr"
        },
        "href": "https://api.spotify.com/v1/playlists/37i9dQZF1DWWQ4RVrwACVr",
        "id": "37i9dQZF1DWWQ4RVrwACVr",
        "images": [
          {
            "height": null,
            "url": "https://i.scdn.co/image/ab67706f000000020cc883eaf497068eaaea4fbc",
            "width": null
          }
        ],
        "name": "90s Swagger",
        "owner": {
          "display_name": "Spotify",
          "external_urls": {
            "spotify": "https://open.spotify.com/user/spotify"
          },
          "href": "https://api.spotify.com/v1/users/spotify",
          "id": "spotify",
          "type": "user",
          "uri": "spotify:user:spotify"
        },
        "primary_color": "#ffffff",
        "public": true,
        "snapshot_id": "Zc29wgAAAAB6h2d8Hi1Pm1RSqdPhaeyD",
        "tracks": {
          "href": "https://api.spotify.com/v1/playlists/37i9dQZF1DWWQ4RVrwACVr/tracks",
          "total": 50
        },
        "type": "playlist",
        "uri": "spotify:playlist:37i9dQZF1DWWQ4RVrwACVr"
      },
      {
        "collaborative": false,
        "description": "The best romantic tracks from Tollywood!\nCover: Sita Ramam",
        "external_urls": {
          "spotify": "https://open.spotify.com/playlist/37i9dQZF1DX44F1QWqYoaV"
        },
        "href": "https://api.spotify.com/v1/playlists/37i9dQZF1DX44F1QWqYoaV",
        "id": "37i9dQZF1DX44F1QWqYoaV",
        "images": [
          {
            "height": null,
            "url": "https://i.scdn.co/image/ab67706f00000002c997eb5271afe854fd512221",
            "width": null
          }
        ],
        "name": "Telugu Love Songs",
        "owner": {
          "display_name": "Spotify",
          "external_urls": {
            "spotify": "https://open.spotify.com/user/spotify"
          },
          "href": "https://api.spotify.com/v1/users/spotify",
          "id": "spotify",
          "type": "user",
          "uri": "spotify:user:spotify"
        },
        "primary_color": "#ffffff",
        "public": true,
        "snapshot_id": "Zbd/pwAAAACQqNSDx7zbCa5sTdL+ZFe7",
        "tracks": {
          "href": "https://api.spotify.com/v1/playlists/37i9dQZF1DX44F1QWqYoaV/tracks",
          "total": 92
        },
        "type": "playlist",
        "uri": "spotify:playlist:37i9dQZF1DX44F1QWqYoaV"
      }
    ],
    "limit": 20,
    "next": "https://api.spotify.com/v1/browse/featured-playlists?offset=20&limit=20&locale=en-US",
    "offset": 0,
    "previous": null,
    "total": 100
  }
}