{
  "categories": {
    "href": "https://api.spotify.com/v1/browse/categories?offset=0&limit=20",
    "items": [
      {
        "href": "https://api.spotify.com/v1/browse/categories/0JQ5DAqbMKFz6FAsUtgAab",
        "id": "0JQ5DAqbMKFz6FAsUtgAab",
        "icons": [
          {
            "height": 274,
            "url": "https://t.scdn.co/images/728ed47fc1674feb95f7ac20236eb6d7.jpeg",
            "width": 274
          }
        ],
        "name": "New Releases"
      },
      {
        "href": "https://api.spotify.com/v1/browse/categories/0JQ5DAqbMKFHCxg5H5PtqW",
        "id": "0JQ5DAqbMKFHCxg5H5PtqW",
        "icons": [
          {
            "height": 274,
            "url": "https://t.scdn.co/images/8a0fabf4d537486e9b5a4623c921f77e.jpeg",
            "width": 274
          }
        ],
        "name": "Hindi"
      },
      {
        "href": "https://api.spotify.com/v1/browse/categories/0JQ5DAqbMKFKSopHMaeIeI",
        "id": "0JQ5DAqbMKFKSopHMaeIeI",
        "icons": [
          {
            "height": 274,
            "url": "https://t.scdn.co/images/11e89d14d7844b7eb3d26619cb662a9b.jpeg",
            "width": 274
          }
        ],
        "name": "Punjabi"
      },
      {
        "href": "https://api.spotify.com/v1/browse/categories/0JQ5DAqbMKFE33XAyDiPIr",
        "id": "0JQ5DAqbMKFE33XAyDiPIr",
        "icons": [
          {
            "height": 274,
            "url": "https://t.scdn.co/images/2117dadfdd254825b3fbc52e3652ed56.jpeg",
            "width": 274
          }
        ],
        "name": "Tamil"
      },
      {
        "href": "https://api.spotify.com/v1/browse/categories/0JQ5DAqbMKFEcBibYcDrCH",
        "id": "0JQ5DAqbMKFEcBibYcDrCH",
        "icons": [
          {
            "height": 274,
            "url": "https://t.scdn.co/images/728ed47fc1674feb95f7ac20236eb6d7.jpeg",
            "width": 274
          }
        ],
        "name": "Ghazals"
      },
      {
        "href": "https://api.spotify.com/v1/browse/categories/0JQ5DAudkNjCgYMM0TZXDw",
        "id": "0JQ5DAudkNjCgYMM0TZXDw",
        "icons": [
          {
            "height": 274,
            "url": "https://charts-images.scdn.co/spotify-charts-logos/music_charts_search_arrow_274x274.jpeg",
            "width": 274
          }
        ],
        "name": "Charts"
      },
      {
        "href": "https://api.spotify.com/v1/browse/categories/0JQ5DAqbMKFIdOwkMWR5at",
        "id": "0JQ5DAqbMKFIdOwkMWR5at",
        "icons": [
          {
            "height": 274,
            "url": "https://t.scdn.co/images/96b5132876eb4e818723555ce365cd87.jpeg",
            "width": 274
          }
        ],
        "name": "Telugu"
      },
      {
        "href": "https://api.spotify.com/v1/browse/categories/0JQ5DAqbMKFEC4WFtoNRpw",
        "id": "0JQ5DAqbMKFEC4WFtoNRpw",
        "icons": [
          {
            "height": 274,
            "url": "https://t.scdn.co/media/derived/pop-274x274_447148649685019f5e2a03a39e78ba52_0_0_274_274.jpg",
            "width": 274
          }
        ],
        "name": "Pop"
      },
      {
        "href": "https://api.spotify.com/v1/browse/categories/0JQ5DAqbMKFCWjUTdzaG0e",
        "id": "0JQ5DAqbMKFCWjUTdzaG0e",
        "icons": [
          {
            "height": 274,
            "url": "https://t.scdn.co/images/fe06caf056474bc58862591cd60b57fc.jpeg",
            "width": 274
          }
        ],
        "name": "Indie"
      },
      {
        "href": "https://api.spotify.com/v1/browse/categories/0JQ5DAqbMKFAUsdyVjCQuL",
        "id": "0JQ5DAqbMKFAUsdyVjCQuL",
        "icons": [
          {
            "height": 274,
            "url": "https://t.scdn.co/media/derived/romance-274x274_8100794c94847b6d27858bed6fa4d91b_0_0_274_274.jpg",
            "width": 274
          }
        ],
        "name": "Love"
      },
      {
        "href": "https://api.spotify.com/v1/browse/categories/0JQ5DAtOnAEpjOgUKwXyxj",
        "id": "0JQ5DAtOnAEpjOgUKwXyxj",
        "icons": [
          {
            "height": 274,
            "url": "https://t.scdn.co/images/728ed47fc1674feb95f7ac20236eb6d7.jpeg",
            "width": 274
          }
        ],
        "name": "Discover"
      },
      {
        "href": "https://api.spotify.com/v1/browse/categories/0JQ5DAqbMKFQIL0AXnG5AK",
        "id": "0JQ5DAqbMKFQIL0AXnG5AK",
        "icons": [
          {
            "height": 274,
            "url": "https://t.scdn.co/images/ac75ec857b714a118c73218bb58664e5.jpeg",
            "width": 274
          }
        ],
        "name": "Trending"
      },
      {
        "href": "https://api.spotify.com/v1/browse/categories/0JQ5DAqbMKFzHmL4tf05da",
        "id": "0JQ5DAqbMKFzHmL4tf05da",
        "icons": [
          {
            "height": 274,
            "url": "https://t.scdn.co/media/original/mood-274x274_976986a31ac8c49794cbdc7246fd5ad7_274x274.jpg",
            "width": 274
          }
        ],
        "name": "Mood"
      },
      {
        "href": "https://api.spotify.com/v1/browse/categories/0JQ5DAqbMKFA6SOHvT3gck",
        "id": "0JQ5DAqbMKFA6SOHvT3gck",
        "icons": [
          {
            "height": 274,
            "url": "https://t.scdn.co/images/7ee6530d5b3c4acc9a0957046bf11d63",
            "width": 274
          }
        ],
        "name": "Party"
      },
      {
        "href": "https://api.spotify.com/v1/browse/categories/0JQ5DAqbMKFOTGtSOysEXE",
        "id": "0JQ5DAqbMKFOTGtSOysEXE",
        "icons": [
          {
            "height": 274,
            "url": "https://t.scdn.co/images/a1817e719adc4716b8f7a8ccecf64d9b",
            "width": 274
          }
        ],
        "name": "Devotional"
      },
      {
        "href": "https://api.spotify.com/v1/browse/categories/0JQ5DAqbMKFIVNxQgRNSg0",
        "id": "0JQ5DAqbMKFIVNxQgRNSg0",
        "icons": [
          {
            "height": 274,
            "url": "https://t.scdn.co/images/04111a3b810243288d81a539ba03f8d0",
            "width": 274
          }
        ],
        "name": "Decades"
      },
      {
        "href": "https://api.spotify.com/v1/browse/categories/0JQ5DAqbMKFQ00XGBls6ym",
        "id": "0JQ5DAqbMKFQ00XGBls6ym",
        "icons": [
          {
            "height": 274,
            "url": "https://t.scdn.co/images/728ed47fc1674feb95f7ac20236eb6d7.jpeg",
            "width": 274
          }
        ],
        "name": "Hip-Hop"
      },
      {
        "href": "https://api.spotify.com/v1/browse/categories/0JQ5DAqbMKFHOzuVTgTizF",
        "id": "0JQ5DAqbMKFHOzuVTgTizF",
        "icons": [
          {
            "height": 274,
            "url": "https://t.scdn.co/media/derived/edm-274x274_0ef612604200a9c14995432994455a6d_0_0_274_274.jpg",
            "width": 274
          }
        ],
        "name": "Dance/Electronic"
      },
      {
        "href": "https://api.spotify.com/v1/browse/categories/0JQ5DAqbMKFJw7QLnM27p6",
        "id": "0JQ5DAqbMKFJw7QLnM27p6",
        "icons": [
          {
            "height": 274,
            "url": "https://t.scdn.co/images/67a216e1e07144f889d366fed5c325bc.jpeg",
            "width": 274
          }
        ],
        "name": "Student"
      },
      {
        "href": "https://api.spotify.com/v1/browse/categories/0JQ5DAqbMKFFzDl7qN9Apr",
        "id": "0JQ5DAqbMKFFzDl7qN9Apr",
        "icons": [
          {
            "height": 274,
            "url": "https://t.scdn.co/media/derived/chill-274x274_4c46374f007813dd10b37e8d8fd35b4b_0_0_274_274.jpg",
            "width": 274
          }
        ],
        "name": "Chill"
      }
    ],
    "limit": 20,
    "next": "https://api.spotify.com/v1/browse/categories?offset=20&limit=20",
    "offset": 0,
    "previous": null,
    "total": 64
  }
}